{
  "base_url": "/binder/jupyter/user/yasmineutt-mt15-2021-tp3-62psqqrl/",
  "hostname": "0.0.0.0",
  "notebook_dir": "/home/jovyan",
  "password": false,
  "pid": 18,
  "port": 8888,
  "secure": false,
  "sock": "",
  "token": "0fxA3KRaTTK95VzhIQcCjw",
  "url": "http://0.0.0.0:8888/binder/jupyter/user/yasmineutt-mt15-2021-tp3-62psqqrl/"
}